Chapter 10 excercises
…
        )

 geoms

## # A tibble: 48 × 4
##    geom                stat                shape   use                          
##    <chr>               <chr>               <chr>   <chr>                        
##  1 geom_abline         <NA>                line    Diagonal reference line      
##  2 geom_hline          <NA>                line    Horizontal reference line    
##  3 geom_vline          <NA>                line    Vertical reference line      
##  4 geom_bar            stat_count          bar     Bar chart                    
##  5 geom_col            <NA>                bar     Bar chart                    
##  6 geom_bin_2d         stat_bin_2d         bin     Heatmap of 2d bin counts     
##  7 geom_blank          <NA>                <NA>    empty space                  
##  8 geom_boxplot        stat_boxplot        boxplot A box and whiskers plot (in …
##  9 geom_contour        stat_contour        lines   2D contours of a 3D surface  
## 10 geom_contour_filled stat_contour_filled line    2D contours of a 3D surface  
## # ℹ 38 more rows
…
